CRISPRviewR-vignette
…
Inspect a subset of the data. Note that running
crispr_summary() on the full merged object may
give a spurious output as array labels are repeated across
samples.

crispr_summary(merged |> dplyr::filter(id == "s1"))
#> # A tibble: 235 × 4
#> # Groups:   array [235]
#>    array    contig                              length spacer_count
#>    <chr>    <chr>                                <dbl>        <int>
#>  1 CRISPR1  NODE_11_length_163482_cov_26.862691    499            7
#>  2 CRISPR2  NODE_12_length_155701_cov_23.751642   3341           50
#>  3 CRISPR3  NODE_15_length_139312_cov_42.730247    697           12
#>  4 CRISPR4  NODE_43_length_91727_cov_51.432073    4917           75
#>  5 CRISPR5  NODE_83_length_64643_cov_17.445052     250            5
#>  6 CRISPR6  NODE_94_length_61915_cov_16.552279     206            4
#>  7 CRISPR7  NODE_94_length_61915_cov_16.552279     559            9
#>  8 CRISPR8  NODE_114_length_56943_cov_14.370324   2902           48
#>  9 CRISPR9  NODE_141_length_50913_cov_5.048252     691           11
#> 10 CRISPR10 NODE_153_length_49486_cov_10.982885    220            4
#> # … with 225 more rows
…
Group CRISPR arrays by shared repeats

The group_arrays() function determines a consensus
repeat (`repcon``) for each array, then associates arrays with identical
consensus sequences.

groups <- group_arrays(merged)
group_summary(groups)
#> # A tibble: 366 × 4
#>    repcon_grp repcon                               sample_list sample_count
#>         <int> <chr>                                <list>             <int>
#>  1         65 ATTTCAAAACCAYATCCCCGCAAGGGGACGGAAAC  <chr [5]>              5
#>  2        102 CAGTATATCAAAGGGGATTGGTGATTGATTCCCAGC <chr [5]>              5
#>  3        107 CCAGCCCTGGCGCGTGCGGGCGTTCCC          <chr [5]>              5
#>  4        108 CCAGCCGCCTTCGGGCGGCTGTGTGTTGAAAC     <chr [5]>              5
#>  5        114 CCCGTCCCCGTGAGCGCGGGCGCAGC           <chr [5]>              5
#>  6        116 CCCTCAATGAAGTGCAGTCCCCGAAGGAACTGCAAG <chr [5]>              5
#>  7        131 CCTTAATCTCCGTATGCGCGGAGCTGTC         <chr [5]>              5
#>  8        152 GAAGTCTATCAAGGGGTCTGGTGACTGATTCCCAGC <chr [5]>              5
#>  9        173 GCCTCAATGAAGTGCAGTTCCCGAAGGAACTGCGAC <chr [5]>              5
#> 10        182 GGAACTACCTCCGCGCACGCGGAGAATAC        <chr [5]>              5
#> # … with 356 more rows
…
